...............
----------------------------------------------------------------------
Ran 15 tests in 0.032s

OK
Name             Stmts   Miss Branch BrPart  Cover   Missing
------------------------------------------------------------
Collatz.py          33      0     12      0   100%
TestCollatz.py      61      0      0      0   100%
------------------------------------------------------------
TOTAL               94      0     12      0   100%
